wave.vcd
$date
     3 13, 122       23:7:59
$end

$version
              Self-made Digital Simulator
$end

$timescale
     1 ns
$end

$scope module Test $end
$var wire    2  x  x       $end
$var wire    1  y  y       $end
$var wire    1  t1  t1       $end
$var wire    2  t2  t2       $end
$var wire    2  t3  t3       $end
$var wire    1  bi  bi       $end
$var wire    1  a  a       $end
$var wire    3  b  b       $end
$var wire    1  c  c       $end
$upscope $end
$enddefinitions  $end

$comment
All initial values are dumped below at delays 0 sec = 0 timescale units.
$end

$dumpvars
0x
0y
0t1
0t2
0t3
0bi
0a
0b
0c
$end


#2
0y
0t1
0bi

#5
0x
0t1

#6
1bi

#8
1t1

#9
0bi

#11
0t1

#12
1x
1bi

#14
1t1

#15
0bi

#17
0t1

#18
1x
1bi

#20
1t1

#21
0bi

#23
0t1

#24
1x
1bi
